<?xml version="1.0" standalone="no"?>
<!DOCTYPE svg PUBLIC "-//W3C//DTD SVG 20010904//EN"
 "http://www.w3.org/TR/2001/REC-SVG-20010904/DTD/svg10.dtd">
<svg version="1.0" xmlns="http://www.w3.org/2000/svg"
 width="890.000000pt" height="879.000000pt" viewBox="0 0 890.000000 879.000000"
 preserveAspectRatio="xMidYMid meet">

<g transform="translate(0.000000,879.000000) scale(0.100000,-0.100000)"
fill="#000000" stroke="none">
<path d="M5730 8075 c0 -3 18 -21 39 -40 34 -31 60 -80 48 -91 -5 -5 -194 60
-256 88 -25 11 -68 22 -96 25 -49 5 -325 -11 -392 -23 -56 -10 -53 -12 117
-73 60 -22 293 -88 333 -95 20 -4 37 -11 37 -15 0 -15 -30 -21 -111 -21 -43 0
-79 -4 -79 -8 0 -11 34 -42 45 -42 5 0 16 -6 24 -14 9 -7 45 -28 81 -47 36
-18 76 -40 90 -49 14 -9 39 -22 55 -28 17 -5 68 -24 115 -42 84 -31 201 -70
313 -104 31 -9 57 -21 57 -25 0 -5 -31 -11 -69 -15 -77 -7 -121 -20 -121 -36
0 -5 4 -10 10 -10 5 0 36 -20 69 -45 32 -25 66 -45 74 -45 8 0 20 -7 27 -15
26 -31 233 -161 320 -201 19 -9 37 -20 40 -24 12 -18 300 -170 322 -170 22 -1
91 -37 82 -43 -5 -3 -38 -10 -74 -17 -97 -16 -95 -14 -63 -67 74 -128 151
-213 492 -546 66 -66 121 -123 121 -128 0 -5 -21 -9 -46 -9 l-46 0 4 -127 c5
-127 17 -193 64 -349 13 -44 24 -87 24 -94 0 -8 12 -46 26 -85 15 -38 35 -95
46 -125 11 -30 30 -83 44 -118 13 -34 24 -74 24 -88 0 -23 -3 -25 -22 -20 -13
4 -37 9 -55 13 -28 5 -33 3 -39 -21 -10 -40 1 -303 15 -361 7 -27 21 -83 32
-122 10 -40 19 -81 19 -91 0 -10 9 -53 20 -95 23 -92 36 -222 23 -230 -16 -10
-32 7 -46 48 -16 45 -37 58 -37 23 0 -20 -26 -82 -67 -161 -55 -105 -69 -125
-213 -307 l-75 -95 -3 165 c-1 91 -1 294 0 453 2 158 0 287 -3 287 -3 0 -10
26 -16 58 -25 131 -50 143 -62 28 -7 -65 -20 -94 -39 -83 -5 4 -12 95 -15 204
-4 127 -13 237 -26 305 -27 149 -35 157 -49 52 -6 -48 -15 -91 -20 -96 -9 -9
-22 104 -22 188 0 37 -3 43 -22 46 -22 3 -23 7 -21 71 l2 67 -56 0 -56 0 7
-70 6 -70 -29 0 c-27 0 -28 -2 -35 -61 -3 -34 -6 -88 -6 -120 0 -71 -15 -78
-24 -11 -14 104 -18 122 -27 122 -5 0 -9 -8 -10 -17 -1 -10 -3 -31 -5 -48 -5
-42 -23 -417 -24 -490 -1 -108 -39 -116 -48 -10 -6 76 -20 78 -28 5 -3 -33
-12 -68 -20 -77 -12 -17 -14 -17 -29 -2 -10 10 -22 48 -28 88 -6 39 -15 71
-19 71 -4 0 -11 -18 -14 -40 -10 -63 -20 -47 -22 38 -2 51 -7 80 -17 87 -7 6
-16 28 -20 48 -6 32 -11 37 -36 37 -26 0 -29 -4 -35 -40 -4 -22 -11 -43 -15
-46 -5 -3 -9 -33 -9 -67 0 -66 -12 -102 -24 -72 -3 9 -6 25 -6 36 0 37 -17 18
-23 -26 -4 -25 -13 -55 -21 -68 -13 -18 -36 -189 -36 -259 0 -17 -22 -18 -314
-18 l-313 0 -5 87 c-4 75 -8 89 -26 101 -12 8 -22 23 -22 33 0 27 -21 69 -36
69 -6 0 -19 -19 -29 -43 -9 -23 -24 -50 -33 -60 -12 -13 -18 -45 -22 -105 l-5
-87 -64 -3 c-45 -2 -67 1 -72 10 -13 19 -11 845 2 893 22 83 22 85 7 85 -11 0
-17 19 -24 68 -5 37 -13 67 -19 67 -5 0 -14 -34 -20 -75 -11 -80 -28 -100 -33
-37 -2 23 -8 37 -17 37 -23 0 -45 30 -45 62 0 17 -7 51 -15 77 -8 25 -20 73
-27 106 -9 41 -18 61 -29 63 -29 5 -58 -59 -70 -149 -10 -83 -23 -117 -34 -88
-2 8 -6 178 -8 379 -4 342 -18 550 -38 550 -4 0 -10 -36 -14 -81 -6 -67 -10
-80 -24 -77 -11 2 -18 17 -21 48 -3 25 -13 56 -23 70 -15 21 -17 50 -17 208 0
172 -7 222 -30 222 -4 0 -12 -12 -18 -27 l-9 -28 -17 33 c-14 28 -16 48 -11
108 l7 74 -32 30 -33 31 7 75 c5 51 3 80 -4 90 -20 23 -41 211 -47 424 l-6
206 27 17 c28 19 36 63 14 85 -19 19 -30 14 -18 -8 9 -16 8 -20 -5 -20 -9 0
-18 7 -22 15 -9 25 -40 -14 -35 -42 5 -28 -4 -30 -17 -5 -7 13 -6 27 4 45 11
22 11 27 0 27 -32 0 -34 -75 -2 -100 l22 -17 -7 -249 c-8 -291 -14 -351 -37
-380 -15 -19 -16 -32 -8 -94 l10 -71 -32 -33 c-31 -31 -31 -35 -29 -113 2 -58
-2 -86 -12 -98 -13 -16 -15 -16 -26 0 -11 15 -13 15 -25 -6 -12 -24 -28 -185
-29 -309 0 -57 -5 -82 -20 -105 -11 -16 -20 -47 -20 -67 0 -21 -4 -38 -9 -38
-12 0 -21 36 -21 87 0 73 -17 56 -24 -24 -4 -47 -12 -83 -21 -93 -14 -15 -15
-46 -9 -226 8 -250 -3 -538 -19 -508 -6 10 -17 25 -24 32 -8 9 -13 39 -13 85
0 60 -4 77 -23 100 l-22 28 -24 -32 c-20 -26 -23 -42 -22 -100 1 -59 -1 -70
-21 -83 -16 -11 -24 -30 -28 -63 -5 -47 -6 -48 -40 -48 -19 0 -34 -5 -33 -10
1 -6 4 -22 8 -36 4 -17 1 -30 -9 -38 -12 -11 -16 -7 -25 26 -6 21 -13 55 -16
76 -8 49 -25 47 -25 -3 0 -22 -7 -57 -15 -77 -13 -32 -13 -41 0 -86 23 -77 22
-868 -1 -891 -16 -17 -43 -20 -91 -10 -30 6 -30 7 -36 81 -3 41 -12 81 -19 90
-7 9 -22 34 -33 56 -11 23 -25 42 -31 44 -6 2 -18 -13 -28 -34 -9 -21 -22 -49
-30 -61 -8 -13 -17 -57 -21 -98 l-7 -74 -324 0 -324 0 -1 88 c0 48 -4 107 -9
132 -18 93 -50 155 -50 98 0 -13 -4 -30 -10 -38 -16 -25 -23 14 -16 86 l7 64
-27 0 c-25 0 -26 1 -19 50 l7 50 -36 0 -36 0 0 -50 c0 -44 -2 -50 -21 -50 -20
0 -21 -4 -15 -41 7 -46 -1 -109 -15 -109 -5 0 -9 9 -9 19 0 25 -10 51 -20 51
-4 0 -10 -19 -14 -42 -3 -24 -9 -61 -12 -83 -7 -47 -20 -65 -44 -65 -19 0 -30
36 -30 104 0 76 -17 73 -25 -5 -8 -80 -23 -115 -36 -82 -4 10 -8 90 -9 178 0
88 -5 192 -10 230 -6 39 -13 106 -16 150 -3 44 -10 84 -15 89 -19 20 -34 -16
-37 -90 -6 -115 -25 -89 -36 48 -7 104 -11 117 -28 121 -18 5 -20 13 -17 64
l4 58 -52 3 -53 3 0 -65 c0 -50 -3 -66 -14 -66 -20 0 -26 -22 -27 -108 -1 -42
-5 -90 -9 -107 -7 -30 -7 -30 -13 -5 -3 14 -9 45 -12 70 -7 55 -18 75 -38 67
-16 -6 -20 -52 -34 -441 -6 -145 -12 -211 -20 -213 -12 -4 -30 68 -35 141 -5
65 -24 54 -32 -19 -4 -36 -12 -78 -18 -93 -9 -19 -11 -155 -9 -489 2 -306 0
-463 -7 -463 -5 0 -16 10 -25 23 -8 12 -25 33 -38 47 -13 14 -31 35 -39 47 -8
11 -43 57 -77 102 -35 45 -63 86 -63 90 0 5 -4 11 -8 13 -10 4 -58 96 -105
202 l-36 80 -15 -35 c-8 -19 -17 -42 -20 -52 -12 -39 -31 -10 -34 54 -3 62 13
147 58 314 40 150 55 258 55 395 -1 170 -2 172 -52 154 -81 -28 -90 -13 -48
82 14 31 25 62 25 68 0 7 9 31 20 54 11 22 20 48 20 56 0 9 11 44 24 78 31 79
76 229 76 250 0 9 9 55 20 102 16 66 20 112 18 198 l-3 113 -42 -1 c-63 -1
-56 20 36 112 110 109 179 174 184 174 6 0 157 151 157 157 0 3 19 24 43 48
47 49 70 77 107 130 14 20 37 52 53 72 15 20 27 41 27 48 0 7 -30 17 -77 25
-124 21 -127 24 -59 54 32 14 62 26 67 26 13 0 188 88 249 126 30 18 64 38 75
43 11 5 35 21 54 35 19 14 39 26 44 26 4 0 23 11 40 24 18 13 48 32 67 43 48
26 114 70 182 121 31 23 61 42 65 42 13 1 88 68 82 74 -3 3 -39 9 -80 12 -82
8 -119 18 -119 34 0 5 9 10 20 10 11 0 46 9 78 20 31 12 73 25 92 29 58 15
150 50 238 92 45 21 87 39 94 39 13 0 82 41 86 52 2 4 10 8 18 8 8 0 27 8 42
18 15 10 41 27 57 38 17 11 38 23 48 27 9 3 17 13 17 21 0 12 -18 16 -90 18
-51 2 -90 7 -90 13 0 6 39 20 87 32 49 12 108 31 133 42 25 11 54 21 66 21 11
0 24 4 30 9 5 5 29 16 54 24 79 27 130 49 130 57 0 17 -39 20 -231 22 -182 1
-199 0 -279 -25 -102 -30 -159 -51 -212 -77 -32 -15 -40 -16 -44 -5 -7 16 33
73 55 80 9 3 22 14 29 26 13 20 12 21 -15 16 -27 -4 -86 -24 -224 -75 -41 -15
-85 -41 -115 -68 -124 -111 -187 -173 -226 -221 -60 -74 -68 -70 -68 32 0 47
-3 85 -8 85 -4 0 -25 -12 -47 -27 -44 -30 -45 -31 -95 -74 -19 -17 -55 -47
-78 -67 -24 -20 -59 -60 -78 -89 -47 -74 -57 -69 -49 22 5 48 4 75 -3 75 -17
0 -163 -126 -287 -246 -72 -71 -195 -225 -195 -245 0 -8 -9 -25 -20 -39 -11
-14 -20 -31 -20 -38 0 -6 -11 -33 -24 -60 -29 -58 -66 -179 -66 -216 0 -15 -5
-26 -11 -24 -12 4 -25 27 -65 116 -15 34 -31 62 -35 62 -11 0 -58 -53 -75 -85
-6 -11 -26 -47 -44 -80 -75 -134 -87 -165 -160 -421 -11 -39 -20 -80 -20 -90
0 -10 -14 -66 -31 -124 -17 -58 -40 -137 -52 -177 -24 -82 -34 -82 -68 -2 -25
57 -43 76 -56 57 -8 -13 -26 -75 -60 -213 -21 -82 -44 -345 -43 -490 1 -139
27 -355 51 -427 13 -37 21 -70 18 -72 -2 -2 -24 -1 -49 4 -31 6 -52 17 -67 37
-13 15 -28 34 -34 41 -6 8 -15 10 -19 5 -10 -11 6 -278 25 -416 8 -59 15 -123
15 -142 0 -42 35 -198 61 -276 10 -31 19 -62 19 -69 0 -13 53 -136 97 -227 14
-28 41 -66 59 -84 30 -29 44 -59 29 -59 -3 0 -45 19 -93 42 -48 24 -91 44 -96
47 -13 6 3 -77 31 -154 14 -38 31 -90 38 -115 17 -57 42 -126 60 -167 8 -17
15 -35 15 -40 0 -4 21 -48 46 -98 54 -109 138 -234 196 -297 43 -45 122 -134
136 -153 4 -5 21 -28 37 -50 17 -22 32 -42 35 -45 6 -6 25 -36 46 -73 15 -27
14 -29 -5 -34 -27 -7 -27 -9 12 -77 63 -112 104 -174 124 -191 7 -5 25 -26 40
-46 72 -91 175 -197 251 -255 45 -35 86 -64 91 -64 5 0 60 -50 121 -111 99
-98 113 -115 118 -152 3 -28 15 -52 37 -74 18 -18 35 -33 39 -33 4 0 22 -10
39 -22 18 -13 37 -24 42 -25 6 -1 39 -9 75 -18 43 -11 92 -16 145 -13 l80 3 5
-46 c6 -53 43 -104 80 -112 56 -12 84 -27 72 -39 -7 -7 -12 -23 -12 -36 0 -30
48 -112 65 -112 7 0 26 -7 41 -15 39 -20 90 -19 164 5 79 25 80 25 80 -6 0
-71 49 -83 143 -34 l57 29 0 -28 c0 -44 32 -64 109 -72 48 -4 75 -12 90 -26
20 -18 128 -78 142 -78 3 0 28 -10 55 -21 27 -12 83 -32 124 -44 41 -12 100
-32 130 -42 70 -26 277 -47 450 -48 274 0 579 61 740 149 30 17 71 39 91 50
21 11 44 27 53 36 8 9 50 23 93 31 43 8 82 19 87 24 6 6 9 25 8 44 l-3 35 53
-30 c56 -30 124 -39 146 -17 7 7 12 27 12 46 0 38 -7 37 90 12 52 -14 140 -6
178 15 63 34 75 53 77 112 2 56 3 57 39 69 68 24 90 49 101 117 l10 62 85 1
c104 2 227 38 304 89 57 37 71 59 81 119 7 43 25 76 40 76 33 0 165 193 165
241 0 8 19 28 41 45 77 54 261 228 317 297 60 75 132 209 132 245 0 15 -6 22
-20 22 -11 0 -20 6 -20 14 0 22 28 82 44 96 9 7 16 19 16 27 0 7 6 16 13 19 8
3 32 33 55 67 23 34 57 80 77 101 19 22 35 42 35 45 0 3 15 22 33 41 35 38 85
109 117 168 11 20 31 55 45 77 13 22 29 56 36 75 6 19 17 49 25 65 23 52 56
148 65 190 4 22 18 65 30 95 25 65 51 161 45 167 -2 2 -33 -14 -69 -36 -36
-22 -82 -43 -103 -47 l-38 -7 47 60 c26 32 47 66 47 74 0 8 9 25 20 39 11 14
20 32 20 41 0 8 14 43 30 77 17 34 30 70 30 79 0 10 9 47 19 83 35 117 60 272
76 460 20 254 22 390 5 390 -5 0 -10 -6 -10 -12 -1 -21 -110 -118 -132 -118
-12 0 -6 40 16 98 52 139 48 739 -7 923 -13 46 -30 103 -36 127 -8 27 -17 42
-28 42 -19 0 -42 -28 -43 -51 0 -9 -8 -27 -19 -40 -16 -20 -21 -21 -35 -10 -9
7 -20 30 -25 50 -5 20 -23 88 -39 151 -17 63 -40 158 -52 210 -43 187 -60 235
-145 410 -30 62 -83 152 -94 160 -4 3 -10 13 -14 23 -3 9 -12 17 -19 17 -13 0
-68 -110 -68 -137 0 -8 -5 -23 -10 -33 -16 -30 -40 -13 -40 27 0 52 -47 176
-108 283 -29 52 -56 97 -60 100 -4 3 -24 30 -45 60 -61 90 -166 196 -281 285
-22 17 -48 40 -59 53 -37 40 -47 29 -47 -53 0 -76 -10 -93 -31 -52 -25 46 -77
100 -170 176 -53 43 -105 82 -117 85 -23 8 -29 -10 -34 -98 -3 -45 -19 -55
-45 -28 -10 10 -41 43 -69 73 -174 183 -239 223 -472 285 -59 16 -62 16 -62 9z
m-210 -74 c19 -6 54 -15 78 -21 46 -12 53 -24 23 -40 -45 -23 -87 -22 -119 5
-16 14 -38 25 -48 25 -27 0 -48 16 -40 29 9 13 59 14 106 2z m-2010 -19 c0 -5
-30 -23 -66 -41 -67 -33 -70 -34 -153 -17 -20 4 -25 22 -9 32 29 19 228 41
228 26z m2517 -82 c24 -16 47 -30 52 -30 17 0 79 -54 124 -108 43 -52 46 -58
30 -69 -9 -7 -36 -13 -59 -13 -35 0 -48 6 -86 43 -25 23 -56 58 -68 77 -13 19
-36 50 -52 68 -55 65 -19 84 59 32z m-3042 -18 c-11 -9 -38 -44 -60 -77 -22
-33 -46 -64 -52 -68 -7 -4 -13 -13 -14 -20 -1 -22 -69 -69 -108 -74 -40 -6
-81 9 -81 30 0 19 188 197 208 197 4 0 29 11 56 25 36 18 53 22 60 14 8 -7 5
-15 -9 -27z m1515 -26 c0 -8 -4 -18 -10 -21 -5 -3 -10 3 -10 14 0 12 5 21 10
21 6 0 10 -6 10 -14z m-30 -26 c0 -5 -7 -10 -15 -10 -8 0 -15 5 -15 10 0 6 7
10 15 10 8 0 15 -4 15 -10z m1368 -32 c68 -39 194 -191 178 -217 -5 -8 -240
104 -336 160 -35 20 -60 46 -60 60 0 14 84 28 133 23 26 -3 64 -14 85 -26z
m-2538 -14 c5 -6 -80 -83 -93 -84 -4 0 -24 -11 -45 -24 -20 -12 -71 -38 -112
-56 -41 -18 -86 -41 -99 -51 -27 -22 -51 -25 -51 -6 0 15 68 107 118 161 60
62 103 78 197 71 43 -3 82 -8 85 -11z m3171 -73 c16 -16 29 -33 29 -38 0 -5
10 -19 23 -30 53 -49 167 -206 167 -230 0 -22 -35 -14 -81 17 -24 16 -49 30
-54 30 -6 0 -36 27 -67 59 -69 73 -88 121 -68 181 7 22 15 40 17 40 3 0 18
-13 34 -29z m-3976 -54 c4 -30 2 -70 -3 -90 -11 -39 -60 -107 -78 -107 -7 0
-14 -6 -17 -13 -3 -8 -26 -23 -50 -35 -25 -12 -48 -26 -52 -32 -3 -5 -19 -10
-36 -10 l-29 0 17 43 c9 23 22 47 27 53 6 7 27 31 46 55 19 24 45 54 58 67 12
13 22 25 22 28 0 10 72 94 80 94 5 0 12 -24 15 -53z m3850 -116 c0 -44 -4 -56
-22 -68 -21 -14 -25 -13 -53 17 -34 36 -37 56 -14 88 12 18 24 22 52 20 l37
-3 0 -54z m-3692 25 c12 -9 17 -27 17 -59 0 -39 -4 -49 -25 -63 -23 -15 -27
-15 -50 0 -33 22 -42 60 -22 102 18 37 48 44 80 20z m4198 -16 c10 -6 19 -17
19 -25 0 -8 3 -15 8 -15 4 0 29 -30 56 -66 26 -36 55 -68 62 -71 8 -3 14 -11
14 -19 0 -7 11 -21 25 -30 14 -9 25 -23 25 -30 0 -8 3 -14 8 -14 4 -1 23 -24
42 -51 19 -28 45 -63 56 -78 33 -41 75 -131 72 -153 -3 -18 -8 -17 -78 19 -97
50 -236 154 -294 221 -52 59 -79 229 -50 306 7 19 9 19 35 6z m-4738 -90 c12
-69 -2 -158 -34 -222 -16 -32 -34 -58 -39 -58 -6 0 -10 -7 -10 -15 0 -9 -7
-18 -15 -21 -8 -4 -28 -18 -44 -33 -34 -31 -148 -111 -160 -111 -5 0 -14 -6
-20 -14 -13 -15 -94 -56 -111 -56 -5 0 -10 8 -10 18 0 20 54 128 76 153 8 8
14 20 14 26 0 6 4 13 8 15 5 2 19 19 33 40 32 46 88 115 117 141 12 11 22 27
22 34 0 7 4 13 8 13 4 0 34 32 66 71 68 82 87 85 99 19z m4372 -73 c24 -13 56
-35 70 -48 51 -47 186 -262 173 -275 -4 -3 -38 13 -78 35 -39 23 -74 41 -77
41 -2 0 -45 20 -94 45 -49 25 -95 45 -101 45 -6 0 -26 11 -44 25 -18 14 -36
25 -40 25 -4 0 -14 7 -23 15 -9 8 -33 29 -54 46 -21 18 -34 36 -30 40 15 15
87 27 171 28 69 1 90 -3 127 -22z m-3767 -23 c25 -8 10 -35 -42 -73 -60 -44
-120 -81 -181 -111 -22 -11 -47 -24 -55 -29 -8 -5 -37 -20 -65 -33 -27 -12
-78 -44 -112 -70 -35 -27 -67 -48 -73 -48 -15 0 -5 31 29 94 95 177 185 265
286 277 48 6 187 1 213 -7z m4058 -116 c9 -18 45 -68 80 -110 35 -43 64 -82
64 -88 0 -5 4 -10 9 -10 5 0 11 -9 14 -20 13 -48 -81 5 -131 74 -51 71 -90
186 -62 186 5 0 17 -15 26 -32z m-4586 12 c0 -27 -31 -123 -54 -167 -29 -56
-100 -127 -141 -143 -33 -13 -35 -13 -35 3 0 11 18 35 96 130 7 9 14 21 14 26
0 5 7 15 16 22 19 16 84 115 84 129 0 6 5 10 10 10 6 0 10 -4 10 -10z m4977
-346 c21 -21 25 -32 20 -65 -3 -22 -11 -46 -17 -54 -34 -41 -100 8 -100 74 0
29 6 40 28 53 36 23 38 22 69 -8z m338 -94 c17 -92 46 -181 84 -265 10 -22 30
-66 44 -98 15 -31 27 -64 27 -72 0 -8 9 -34 19 -57 45 -102 76 -248 53 -248
-22 0 -194 186 -226 245 -9 17 -21 37 -26 45 -41 64 -71 178 -77 295 -4 73 -1
105 15 164 22 78 50 122 63 99 3 -7 14 -56 24 -108z m-5690 35 c46 -45 24
-135 -33 -135 -33 0 -45 8 -62 39 -23 44 10 121 52 121 10 0 30 -11 43 -25z
m-346 -56 c31 -59 42 -142 31 -244 -12 -113 -25 -149 -111 -304 -39 -72 -198
-251 -221 -251 -22 0 7 145 53 265 10 28 19 56 19 63 0 7 11 29 23 50 13 20
26 46 30 57 8 29 65 167 77 187 5 10 10 24 10 32 0 41 43 197 54 193 6 -2 22
-23 35 -48z m5595 -59 c52 -44 136 -176 136 -213 0 -7 8 -31 19 -53 10 -21 22
-58 26 -82 l7 -43 -119 119 c-65 65 -128 137 -140 159 -29 53 -66 160 -59 171
6 9 100 -33 130 -58z m-5119 -113 c-37 -78 -87 -140 -210 -260 -48 -46 -71
-63 -73 -53 -8 36 107 316 128 316 6 0 10 6 10 13 0 13 50 48 130 90 l45 24 3
-27 c2 -16 -12 -59 -33 -103z m5348 -2 c7 -83 72 -249 136 -350 21 -33 27 -65
11 -65 -15 0 -82 73 -107 116 -83 146 -78 130 -78 249 0 167 26 200 38 50z
m-5635 -85 c4 -65 1 -85 -23 -145 -15 -39 -33 -77 -40 -85 -6 -8 -26 -40 -44
-70 -42 -70 -80 -110 -104 -110 -16 0 -9 19 46 123 83 155 105 214 117 305 5
40 13 78 16 84 13 21 28 -27 32 -102z m2797 -130 c-6 -37 -8 -41 -17 -25 -12
21 -5 236 9 257 10 16 17 -170 8 -232z m85 100 c0 -122 -11 -173 -26 -115 -9
36 6 256 17 249 5 -3 9 -63 9 -134z m-150 1 c0 -69 -4 -122 -10 -126 -6 -4
-10 38 -10 119 0 77 4 126 10 126 6 0 10 -46 10 -119z m3285 -496 c27 -26 31
-54 14 -88 -35 -65 -109 -39 -109 38 0 33 15 59 40 68 26 9 30 8 55 -18z
m-231 -29 c15 -13 26 -28 26 -35 0 -6 4 -11 9 -11 5 0 22 -20 38 -45 15 -25
31 -45 36 -45 4 0 7 -8 7 -18 0 -10 5 -23 10 -28 6 -6 17 -41 25 -80 26 -123
16 -517 -15 -548 -9 -9 -43 57 -75 149 -10 28 -22 54 -26 59 -5 6 -9 18 -9 29
0 10 -8 37 -19 60 -34 77 -71 486 -47 525 10 16 11 16 40 -12z m450 -149 c3
-78 11 -178 16 -222 16 -125 25 -571 12 -579 -16 -10 -70 103 -97 204 -42 154
-42 405 0 590 18 81 44 150 55 150 4 0 10 -64 14 -143z m-6610 112 c26 -12 38
-55 26 -99 -16 -61 -100 -19 -100 50 0 34 11 47 47 59 1 1 13 -4 27 -10z
m3296 2 c0 -4 -31 -11 -69 -14 -83 -7 -189 2 -169 14 17 11 238 11 238 0z
m-3079 -48 c15 -37 6 -221 -16 -343 -36 -199 -140 -499 -165 -474 -18 18 -32
208 -28 372 5 176 13 211 67 323 22 46 107 149 123 149 5 0 13 -12 19 -27z
m6244 -302 c0 -176 -3 -317 -7 -315 -18 11 -38 74 -54 164 -19 116 -17 321 4
342 6 6 12 20 12 30 0 22 30 98 39 98 3 0 6 -144 6 -319z m-6711 256 c7 -19
26 -83 42 -143 27 -100 29 -122 28 -279 -1 -180 -12 -242 -69 -390 -13 -33
-26 -70 -30 -82 -7 -27 -20 -30 -29 -7 -12 30 -6 231 14 479 11 138 20 296 20
353 0 56 2 102 5 102 3 0 11 -15 19 -33z m139 -45 c38 -86 49 -141 54 -268 5
-118 3 -139 -17 -205 -13 -40 -24 -85 -25 -99 -3 -37 -4 -40 -15 -40 -5 0 -10
120 -12 308 -2 169 -7 315 -12 325 -5 10 -4 17 1 17 5 0 17 -17 26 -38z m3323
3 c11 -59 0 -323 -14 -337 -9 -9 -12 27 -12 180 0 115 4 192 10 192 5 0 12
-16 16 -35z m-146 -160 c0 -105 -4 -176 -10 -180 -7 -4 -10 58 -10 180 0 122
3 184 10 180 6 -4 10 -75 10 -180z m78 -18 c-2 -117 -6 -161 -15 -165 -10 -3
-13 33 -13 160 0 90 3 174 7 187 l6 25 9 -24 c5 -13 7 -95 6 -183z m140 -14
c-2 -87 -7 -143 -13 -143 -13 0 -19 211 -9 300 l7 65 9 -39 c5 -22 7 -104 6
-183z m-18 -250 l115 -7 -65 -8 c-76 -9 -377 1 -360 12 17 11 176 12 310 3z
m-437 -394 c4 -96 6 -435 5 -755 -3 -499 -5 -584 -18 -599 -14 -17 -15 -15
-21 31 -6 54 -8 1237 -2 1402 3 74 8 102 16 99 8 -2 14 -59 20 -178z m722 119
c3 -35 5 -380 3 -768 -3 -662 -4 -705 -20 -708 -17 -3 -18 37 -18 730 0 403 3
750 6 771 10 55 22 45 29 -25z m175 -761 l0 -824 96 -6 c90 -6 114 -11 103
-21 -2 -2 -65 -5 -139 -7 l-135 -4 -3 830 c-1 457 0 836 3 843 2 6 20 12 40
12 l35 0 0 -823z m-1040 -16 c0 -747 -2 -829 -16 -835 -25 -10 -292 -7 -298 3
-10 15 22 21 117 21 51 0 97 4 103 8 9 5 14 188 18 667 4 363 9 729 12 813 l6
152 29 0 29 0 0 -829z m384 154 c-2 -104 -3 -296 -4 -425 -1 -141 -5 -227 -10
-215 -11 25 -13 1168 -2 1245 9 68 19 -324 16 -605z m166 -5 c0 -433 -3 -660
-10 -660 -10 0 -14 216 -14 660 0 444 4 660 14 660 7 0 10 -227 10 -660z
m3287 561 c7 -9 13 -33 13 -53 0 -28 -6 -41 -26 -57 -15 -12 -31 -21 -36 -21
-19 0 -47 37 -53 72 -6 32 -3 41 19 63 28 28 60 27 83 -4z m-281 -8 c18 -16
34 -34 34 -40 0 -7 5 -13 10 -13 6 0 27 -35 48 -77 36 -77 37 -80 37 -198 0
-111 -3 -127 -34 -215 -35 -100 -54 -131 -70 -115 -11 11 -28 155 -36 300 -3
55 -12 154 -20 220 -16 128 -18 165 -9 165 3 0 21 -12 40 -27z m-5298 -54 c16
-5 33 -18 36 -27 23 -65 24 -74 9 -116 -18 -47 -50 -66 -112 -66 -57 0 -89 24
-96 74 -11 74 8 121 55 139 25 9 75 8 108 -4z m4582 -14 c25 -23 35 -74 23
-122 -14 -61 -96 -91 -159 -59 -29 16 -54 62 -54 103 0 34 27 82 53 93 33 15
114 6 137 -15z m-5635 -5 c12 -13 18 -36 18 -66 0 -48 -8 -59 -52 -71 -55 -14
-82 94 -35 141 21 22 47 20 69 -4z m231 -203 c-14 -100 -25 -216 -26 -257 0
-80 -15 -218 -24 -227 -30 -31 -116 214 -116 332 0 49 8 97 27 159 26 82 33
95 93 155 58 59 65 64 68 43 2 -12 -8 -104 -22 -205z m6610 -125 c-9 -48 -25
-138 -36 -201 -19 -108 -38 -180 -66 -246 -7 -16 -19 -48 -26 -70 -19 -55 -68
-129 -78 -119 -13 15 -30 135 -30 215 0 152 37 338 93 464 34 78 33 76 102
148 l50 52 3 -78 c2 -43 -4 -117 -12 -165z m-7114 115 c88 -74 161 -227 205
-427 27 -123 10 -416 -24 -427 -30 -10 -135 255 -153 387 -5 36 -18 110 -30
165 -11 55 -23 129 -26 165 -2 36 -6 86 -9 113 -2 26 -1 47 3 47 4 0 19 -10
34 -23z m6898 -43 c0 -14 -13 -69 -29 -122 -26 -89 -51 -191 -81 -329 -22 -99
-33 -61 -28 100 6 164 20 228 67 302 50 77 71 92 71 49z m-6674 -82 c11 -10
28 -37 38 -60 11 -23 23 -42 28 -42 4 0 8 -6 8 -13 0 -8 8 -29 18 -48 14 -27
18 -66 20 -198 4 -176 -7 -207 -28 -78 -15 96 -47 217 -77 297 -26 67 -45 160
-33 160 3 0 15 -8 26 -18z m5787 -372 c5 -74 5 -279 0 -456 -7 -280 -10 -323
-26 -347 -10 -15 -22 -27 -27 -27 -10 0 -11 560 -2 853 3 115 4 118 25 115 21
-3 22 -10 30 -138z m-448 -5 c4 -68 6 -316 3 -550 -3 -376 -5 -427 -20 -441
-15 -15 -17 -12 -24 42 -8 64 3 976 13 1037 11 69 21 38 28 -88z m-3997 -453
c1 -298 -1 -542 -6 -542 -4 0 -16 10 -26 22 -18 21 -19 42 -13 535 3 282 9
518 12 524 4 5 12 8 18 6 9 -3 13 -146 15 -545z m-423 528 c8 -13 8 -950 0
-959 -4 -3 -19 8 -34 25 -22 24 -29 45 -34 93 -4 35 -5 66 -2 70 2 4 9 167 15
362 6 195 13 369 16 387 5 31 26 43 39 22z m3348 -170 c4 -25 6 -205 3 -400
-3 -195 -5 -444 -6 -553 l0 -198 -22 3 -23 3 -2 589 c-1 324 1 594 3 598 14
23 39 0 47 -42z m-1847 6 c9 -49 -1 -1167 -10 -1188 -16 -35 -33 -19 -40 35
-8 69 -8 876 1 1050 5 123 8 137 24 137 13 0 20 -10 25 -34z m2520 -13 c4 -27
4 -259 1 -518 -4 -258 -7 -494 -7 -522 l0 -53 -40 0 -40 0 0 554 c0 305 3 561
6 570 4 10 18 16 39 16 33 0 34 -2 41 -47z m-3168 -540 l2 -573 -36 0 -36 0 4
563 c1 309 7 568 11 575 5 7 19 12 30 10 l22 -3 3 -572z m4556 409 c-1 -107
-20 -157 -91 -240 -35 -43 -71 -92 -80 -109 -19 -40 -30 -42 -39 -7 -18 70 16
216 62 274 7 8 29 35 49 60 78 96 80 98 90 89 5 -6 9 -35 9 -67z m266 38 c14
-14 20 -33 20 -62 0 -57 -9 -68 -55 -70 -64 -2 -85 54 -45 120 23 37 51 41 80
12z m-6230 -51 c0 -6 9 -23 20 -37 11 -15 27 -36 35 -47 8 -11 26 -33 38 -50
76 -99 122 -256 85 -293 -21 -21 -35 -13 -62 32 -14 24 -48 71 -76 104 -28 34
-55 76 -61 94 -10 37 -12 168 -3 192 7 18 24 22 24 5z m-233 -37 c36 -23 35
-105 -1 -134 -43 -36 -83 -12 -92 54 -5 38 -3 49 15 67 21 21 56 27 78 13z
m6423 -151 c0 -4 -20 -26 -44 -47 -40 -36 -116 -127 -116 -139 0 -3 -10 -22
-23 -43 -13 -20 -29 -55 -36 -77 -7 -22 -19 -49 -26 -59 -14 -18 -15 -18 -34
5 -24 30 -35 87 -23 119 13 35 96 139 135 170 74 61 167 100 167 71z m-3191
-57 c30 -28 57 -30 108 -9 74 31 76 4 7 -82 -36 -44 -42 -62 -21 -65 6 -2 80
-3 162 -3 l150 0 3 -51 3 -51 -181 -7 c-99 -4 -185 -4 -190 -1 -6 3 -10 13
-10 22 0 9 -12 40 -26 70 -21 45 -28 52 -40 42 -8 -6 -14 -21 -14 -32 0 -11
-5 -37 -11 -58 -17 -55 -47 -64 -140 -45 -64 13 -81 13 -143 0 -54 -11 -77
-12 -103 -3 -33 11 -34 12 -31 61 l3 51 117 -2 c65 -1 134 1 153 5 l37 7 -37
37 c-33 34 -64 105 -51 118 4 3 22 -2 41 -11 44 -21 64 -21 71 -2 4 8 10 12
15 9 5 -3 21 4 36 16 30 23 54 19 92 -16z m-3171 -53 c79 -40 170 -131 213
-213 17 -33 18 -41 5 -70 -8 -18 -19 -46 -25 -61 -14 -35 -33 -31 -42 9 -6 31
-40 102 -69 144 -10 14 -31 47 -48 74 -17 26 -49 62 -72 78 -22 17 -40 38 -40
49 0 25 10 24 78 -10z m5909 -98 c46 -81 153 -302 153 -316 0 -7 12 -48 26
-92 23 -69 27 -103 32 -252 l5 -171 -34 -35 c-19 -20 -41 -45 -49 -57 -41 -61
-42 -61 -168 -82 -68 -11 -125 -18 -128 -16 -2 3 0 52 4 109 6 70 5 139 -2
209 -12 103 -23 139 -86 275 -45 98 -46 110 -5 166 19 27 35 54 35 60 0 6 8
23 18 37 10 15 26 50 36 77 72 211 69 207 104 171 14 -14 40 -51 59 -83z m667
75 c-4 -13 -17 -39 -28 -58 -12 -19 -34 -62 -48 -95 -34 -77 -128 -261 -154
-300 -49 -76 -118 -150 -132 -141 -17 10 -15 105 4 211 9 50 18 104 21 120 9
60 60 152 100 181 21 16 44 35 51 42 7 6 18 12 23 12 5 0 28 9 52 19 56 26 68
29 95 30 20 1 22 -2 16 -21z m-6101 -74 c29 -95 105 -277 119 -282 17 -7 68
-91 68 -112 0 -12 -9 -39 -19 -59 -31 -59 -71 -157 -71 -174 0 -8 -7 -31 -15
-51 -9 -20 -20 -82 -26 -139 -9 -83 -8 -118 3 -187 17 -95 14 -114 -14 -107
-11 3 -69 14 -130 23 -98 16 -112 21 -126 43 -9 14 -38 53 -65 85 l-49 59 4
146 c4 153 12 189 79 391 49 147 111 268 189 367 29 38 40 38 53 -3z m-671
-29 c28 -14 58 -25 65 -25 7 0 42 -29 77 -63 85 -86 108 -154 116 -350 3 -77
2 -141 -1 -143 -9 -5 -31 15 -80 76 -59 72 -92 125 -152 245 -64 127 -120 231
-126 235 -5 3 -11 15 -15 28 -7 20 -4 22 28 22 20 0 59 -11 88 -25z m4038
-145 c31 -4 -95 -7 -295 -7 -192 0 -316 3 -275 7 107 9 505 9 570 0z m-948 -7
c-95 -2 -248 -2 -340 0 -92 1 -14 3 173 3 187 0 262 -2 167 -3z m-309 -77 c4
-6 4 -20 1 -31 -6 -17 -10 -119 -13 -312 -1 -46 -4 -53 -21 -53 -11 0 -20 6
-21 13 0 6 -2 44 -3 82 -6 122 -15 161 -42 174 -13 6 -24 19 -24 29 0 10 -11
28 -23 40 l-24 22 -11 -37 c-6 -21 -14 -90 -17 -153 -4 -82 -10 -118 -20 -126
-8 -6 -19 -22 -24 -35 -7 -17 -10 36 -10 172 -1 141 2 200 12 212 9 13 32 17
102 20 100 3 126 0 138 -17z m125 -193 l2 -203 -48 0 -49 0 -7 195 c-4 108 -4
200 -1 206 4 5 28 9 53 7 l47 -3 3 -202z m137 155 c8 -67 2 -344 -7 -354 -17
-16 -22 13 -26 151 -5 148 3 255 18 255 5 0 11 -24 15 -52z m119 30 c9 -36 7
-156 -5 -222 -7 -43 -7 -70 0 -89 14 -35 48 -37 57 -2 5 22 11 25 53 25 40 -1
44 -2 29 -14 -35 -26 -12 -46 55 -46 16 0 27 -5 27 -14 0 -11 -24 -15 -117
-18 -71 -2 -121 1 -125 7 -15 20 -3 395 12 395 4 0 10 -10 14 -22z m114 -102
c-6 -127 -15 -167 -29 -130 -10 24 -11 113 -3 193 5 45 11 61 22 61 13 0 14
-18 10 -124z m168 97 c8 -30 -8 -229 -19 -240 -14 -14 -19 9 -24 136 -6 129
-6 131 15 131 15 0 24 -8 28 -27z m94 -148 c0 -110 -4 -175 -10 -175 -6 0 -10
65 -10 175 0 110 4 175 10 175 6 0 10 -65 10 -175z m114 153 c8 -30 8 -272 0
-320 -15 -87 -24 -26 -24 152 0 173 8 227 24 168z m136 -155 c0 -98 -4 -184
-9 -191 -10 -17 -19 179 -13 289 8 144 22 82 22 -98z m300 -13 c0 -182 -6
-216 -28 -172 -9 17 -21 113 -26 207 -1 31 -11 65 -26 88 l-23 39 -31 -62
c-17 -34 -32 -56 -34 -51 -6 18 -30 12 -42 -8 -5 -11 -13 -67 -17 -125 -6
-101 -13 -126 -27 -90 -3 9 -6 94 -6 190 l0 174 130 0 130 0 0 -190z m1660 -5
c0 -17 -18 -42 -60 -81 -33 -32 -77 -82 -97 -113 -21 -31 -46 -62 -55 -69 -10
-7 -18 -17 -18 -23 0 -13 -72 -79 -87 -79 -7 0 -13 3 -13 6 0 9 22 48 30 54 7
4 17 21 64 105 36 63 79 125 87 125 5 0 9 5 9 11 0 6 17 28 38 50 28 29 45 38
70 39 28 0 32 -3 32 -25z m-4738 -28 c20 -17 54 -63 74 -102 46 -86 47 -89 75
-150 12 -27 26 -58 31 -67 11 -23 10 -51 -1 -46 -15 5 -98 116 -111 148 -7 17
-16 30 -21 30 -5 0 -9 6 -9 13 0 8 -11 27 -25 43 -14 16 -25 32 -25 36 0 4
-20 21 -44 37 -51 35 -61 55 -40 76 24 23 56 18 96 -18z m4826 -79 c-10 -28
-213 -236 -223 -227 -6 6 -3 20 8 38 9 16 27 48 39 71 13 24 42 63 65 87 35
35 49 43 78 43 25 0 35 -4 33 -12z m-4931 -40 c18 -13 36 -32 39 -43 4 -11 10
-22 14 -25 14 -10 70 -119 70 -137 0 -13 -11 -5 -38 27 -20 24 -65 72 -99 106
-35 35 -63 70 -63 78 0 23 38 20 77 -6z m2623 -191 l5 -62 76 0 c58 0 82 -5
105 -20 124 -84 105 -80 427 -78 185 1 287 -1 287 -8 0 -11 -28 -57 -46 -76
-6 -6 -18 -36 -28 -66 -22 -69 -34 -81 -70 -67 -30 11 -60 6 -121 -21 -130
-58 -440 -95 -886 -106 -325 -8 -506 11 -746 77 -132 36 -152 47 -159 88 -8
42 -28 85 -56 122 l-20 25 24 6 c12 4 126 7 251 8 233 1 249 3 322 44 104 57
104 57 304 57 179 0 189 1 184 19 -4 16 -20 19 -151 25 -80 4 -148 8 -150 10
-1 2 7 25 20 50 l23 47 200 -6 200 -5 5 -63z m2368 33 c28 -26 28 -67 0 -97
-29 -30 -41 -29 -72 8 -28 33 -28 59 3 91 22 23 43 22 69 -2z m-5024 -42 c30
-43 10 -101 -37 -110 -50 -10 -77 43 -50 99 19 41 63 46 87 11z m4234 -80 c47
-36 58 -70 48 -142 l-7 -45 48 -3 c41 -3 50 -7 61 -30 11 -24 10 -33 -7 -71
-11 -24 -39 -62 -62 -85 -41 -41 -41 -43 -31 -83 13 -50 0 -93 -37 -126 -29
-26 -161 -93 -183 -93 -8 0 -25 11 -38 25 -31 33 -76 33 -140 0 -28 -14 -50
-22 -50 -18 0 5 36 46 79 92 99 106 172 241 179 335 5 67 -6 69 -32 4 -39 -94
-100 -208 -133 -248 -7 -8 -40 -48 -74 -88 -62 -74 -130 -131 -210 -176 -64
-35 -80 -13 -35 47 28 38 56 95 56 114 0 20 -21 15 -27 -7 -3 -11 -9 -20 -13
-20 -4 0 -20 -19 -35 -42 -16 -24 -34 -47 -42 -51 -7 -4 -13 -12 -13 -17 0
-10 -12 -25 -65 -81 -27 -29 -71 -52 -147 -76 -30 -9 -23 71 11 142 26 55 128
175 148 175 9 0 44 65 64 118 17 47 75 92 119 92 20 0 45 -7 56 -15 10 -8 22
-15 26 -15 8 0 28 91 28 129 0 45 44 142 73 159 22 14 31 14 66 2 23 -7 42
-11 44 -9 2 2 7 17 12 33 13 37 48 63 116 87 75 26 99 24 147 -13z m-3303 -2
c54 -25 89 -58 99 -93 7 -22 9 -22 36 -8 38 20 73 19 93 -2 22 -25 67 -160 67
-202 0 -74 21 -101 50 -66 14 17 66 20 103 6 25 -10 54 -51 76 -111 25 -66 35
-82 66 -94 35 -15 94 -97 142 -199 30 -65 30 -97 1 -97 -64 1 -145 48 -187
109 -17 25 -50 71 -72 101 -22 30 -44 62 -49 70 -7 12 -11 12 -21 3 -10 -10
-4 -29 29 -92 23 -44 42 -82 42 -85 0 -21 -113 29 -159 70 -179 161 -264 284
-325 477 -3 10 -11 15 -17 11 -33 -20 24 -207 82 -270 10 -11 19 -23 19 -27 0
-3 10 -16 23 -29 42 -44 107 -123 107 -130 0 -12 -13 -10 -53 7 -52 22 -72 19
-111 -16 l-36 -31 -47 19 c-27 10 -50 18 -53 19 -16 2 -60 29 -60 36 0 4 -6 8
-14 8 -18 0 -76 78 -76 103 0 10 9 31 20 45 l21 26 -44 40 c-57 52 -94 128
-81 165 8 23 15 26 63 29 49 3 53 5 47 25 -32 117 -12 157 99 198 37 13 69 9
120 -15z m3934 -14 c68 -34 97 -113 71 -193 -14 -40 -14 -41 23 -74 31 -29 37
-41 37 -75 0 -47 -33 -120 -55 -120 -19 0 -19 -29 0 -54 39 -52 1 -113 -83
-137 -51 -14 -57 -9 -67 54 -5 25 -14 42 -28 48 -12 6 -38 19 -57 29 -19 11
-54 19 -77 20 -24 0 -43 3 -43 8 0 4 22 34 48 67 27 33 55 74 64 90 8 17 32
61 52 98 21 38 35 71 33 74 -3 2 -41 -40 -84 -94 -75 -92 -205 -223 -221 -223
-11 0 -29 32 -36 68 -7 29 -5 33 28 48 25 13 37 26 42 48 8 36 7 182 -2 209
-11 35 67 94 111 83 14 -4 27 -18 33 -36 14 -39 27 -38 48 5 34 72 93 92 163
57z m-4600 -46 c11 -10 26 -31 34 -48 l15 -31 27 42 c34 51 62 53 106 10 35
-34 36 -46 20 -133 -14 -76 -1 -128 45 -174 28 -28 34 -42 34 -75 0 -63 -11
-74 -47 -49 -44 31 -192 193 -238 259 -35 51 -40 55 -43 34 -2 -13 5 -35 15
-50 11 -14 34 -53 53 -86 33 -59 98 -147 113 -153 22 -10 1 -29 -45 -40 -53
-12 -99 -51 -151 -126 -40 -58 -167 -15 -167 56 0 17 7 43 17 58 16 28 16 28
-25 67 -35 33 -42 46 -42 77 0 21 5 46 11 57 14 27 46 59 59 59 14 0 12 20 -5
50 -23 41 -19 111 10 151 39 53 72 69 132 66 32 -2 60 -10 72 -21z m5091 -159
c0 -11 -81 -117 -133 -173 -83 -91 -109 -102 -129 -59 -22 49 33 192 80 209 9
4 28 13 42 21 32 19 140 20 140 2z m-5573 -103 c68 -54 110 -169 78 -218 -24
-36 -45 -32 -82 17 -18 23 -45 56 -61 72 -15 17 -41 48 -57 70 -17 22 -32 42
-36 45 -11 9 -18 38 -11 45 4 4 35 5 69 3 51 -3 69 -9 100 -34z m4692 -261
c12 -10 27 -29 34 -43 12 -23 17 -25 74 -22 95 6 146 -18 182 -86 18 -34 13
-91 -11 -125 -28 -39 -59 -66 -76 -67 -10 0 -12 -12 -7 -53 9 -69 -16 -131
-60 -148 -16 -7 -37 -18 -45 -24 -26 -21 -137 -46 -212 -48 l-73 -2 -6 52
c-11 88 -48 118 -163 132 -50 6 -51 7 -81 64 -17 32 -37 62 -45 67 -27 16 6
34 78 41 37 4 103 12 147 17 44 6 129 14 188 17 75 5 107 11 104 18 -3 8 -42
12 -124 12 -99 0 -126 3 -156 19 -19 11 -38 28 -40 38 -5 16 2 18 59 18 56 0
66 3 89 27 19 21 25 39 25 70 l0 43 49 0 c32 0 56 -6 70 -17z m-3834 -32 c-4
-24 -2 -48 5 -61 22 -41 129 -67 158 -38 9 9 12 6 12 -13 0 -15 -12 -37 -28
-52 -27 -26 -31 -27 -154 -27 -79 0 -129 -4 -133 -11 -4 -6 -5 -12 -3 -14 2
-3 80 -7 174 -10 169 -6 273 -17 319 -35 22 -8 24 -12 13 -35 -6 -14 -15 -25
-19 -25 -8 0 -19 -25 -25 -59 -8 -39 -12 -41 -71 -41 -98 0 -163 -58 -163
-146 0 -51 -29 -59 -155 -40 -73 11 -115 23 -156 45 -69 38 -84 68 -76 147 5
50 4 56 -16 63 -29 11 -77 60 -89 91 -12 31 -1 97 22 135 31 50 75 70 155 70
63 0 70 2 81 23 6 13 16 28 22 34 8 8 91 32 125 37 5 1 6 -17 2 -38z m2675 29
c0 -5 -11 -42 -24 -82 -57 -177 -80 -342 -74 -525 6 -174 58 -380 115 -460 13
-17 23 -38 23 -45 0 -31 -184 -136 -285 -162 -29 -8 -78 -21 -107 -30 -229
-64 -580 -81 -778 -38 -58 13 -138 32 -177 42 -40 11 -79 20 -88 20 -14 0
-139 50 -180 73 -11 6 -37 19 -57 29 -21 10 -38 25 -38 33 0 8 12 41 27 72 99
218 107 252 111 491 3 195 2 206 -23 290 -14 48 -34 107 -44 132 -11 25 -27
64 -37 88 -9 23 -15 44 -13 46 4 4 49 -15 79 -33 39 -23 111 -53 165 -67 112
-30 130 -32 331 -45 162 -10 224 -10 320 0 157 17 328 46 440 77 49 13 98 24
107 24 16 0 46 12 147 58 52 24 60 26 60 12z m814 -156 c20 -8 21 -40 1 -48
-8 -3 -61 -10 -117 -16 -57 -6 -112 -12 -122 -13 -41 -4 -24 21 31 46 76 34
165 47 207 31z m-3077 -40 c81 -26 106 -44 61 -44 -63 0 -268 24 -268 32 0 5
5 19 11 30 10 18 17 20 62 14 28 -3 88 -17 134 -32z m2779 -159 c27 -17 29
-41 9 -101 -6 -18 -2 -22 25 -28 18 -3 52 -6 76 -6 45 0 83 -27 85 -59 0 -9 1
-36 2 -60 2 -46 11 -55 60 -66 20 -4 33 -16 43 -41 19 -46 11 -82 -26 -118
-27 -25 -30 -34 -30 -86 0 -55 -2 -59 -34 -79 -41 -26 -76 -26 -140 -4 -32 12
-62 33 -87 62 l-39 44 0 88 c0 101 0 101 75 69 57 -25 83 -27 62 -6 -24 25
-121 62 -182 71 -16 2 -61 11 -100 21 -64 15 -258 23 -335 12 -35 -4 -57 41
-40 83 7 16 15 29 19 29 8 0 80 60 128 107 59 57 118 58 145 3 l16 -35 15 35
c9 19 26 42 39 50 62 40 165 48 214 15z m-2455 -19 c21 -14 39 -35 41 -47 5
-35 27 -35 34 0 8 40 16 44 66 36 31 -6 53 -19 90 -56 27 -27 54 -49 61 -49 7
0 25 -12 41 -26 23 -20 28 -33 28 -66 -1 -23 -7 -45 -14 -49 -7 -4 -62 -6
-123 -3 -60 3 -135 1 -165 -4 -159 -28 -310 -81 -341 -118 -13 -15 -11 -16 11
-9 14 4 41 16 61 26 54 27 62 16 58 -83 -4 -74 -8 -90 -33 -126 -16 -23 -34
-42 -42 -42 -7 0 -14 -5 -16 -10 -5 -15 -76 -39 -116 -40 -26 0 -41 8 -64 32
-27 29 -30 37 -25 80 6 44 4 48 -29 73 -31 24 -34 30 -33 78 0 45 4 55 29 74
15 13 39 25 51 27 23 3 24 7 21 62 -3 52 0 62 21 80 33 29 81 44 138 44 27 0
49 3 49 6 0 3 -9 17 -20 31 -30 38 -26 70 13 94 45 29 153 21 208 -15z m2010
-358 c19 -13 47 -30 62 -38 43 -22 97 -86 97 -116 0 -21 -3 -24 -21 -19 -21 7
-189 172 -189 187 0 13 15 9 51 -14z m-1781 7 c0 -3 -31 -38 -70 -77 -38 -40
-70 -75 -70 -79 0 -4 -12 -14 -26 -24 -35 -23 -53 -7 -35 31 12 27 75 88 135
131 28 20 66 30 66 18z"/>
<path d="M2175 4914 c-9 -19 -14 -41 -12 -48 6 -14 75 -31 85 -22 3 3 -1 6
-10 6 -28 0 -51 37 -45 70 8 40 3 38 -18 -6z"/>
<path d="M6705 4854 c-22 -53 -18 -65 7 -21 21 35 25 37 72 37 61 0 57 5 -11
14 l-52 7 -16 -37z"/>
<path d="M4025 2569 c-4 -6 -4 -13 0 -17 8 -8 759 -5 793 3 12 3 22 10 22 15
0 14 -807 14 -815 -1z"/>
<path d="M4063 2502 c-73 -1 -133 -6 -133 -11 0 -17 247 -23 621 -16 209 4
379 11 379 15 0 18 -355 23 -867 12z"/>
<path d="M6200 1831 c0 -5 17 -16 38 -25 58 -26 110 -56 130 -74 31 -28 52
-34 59 -16 5 12 -4 26 -27 46 -19 15 -39 28 -45 28 -6 0 -35 11 -63 25 -53 25
-92 32 -92 16z"/>
<path d="M2715 1796 c-110 -45 -155 -74 -155 -102 0 -21 34 -10 87 27 23 16
44 29 47 29 5 0 75 46 85 56 9 8 -34 1 -64 -10z"/>
<path d="M4928 1701 c-31 -3 -62 -11 -67 -16 -8 -8 -41 -139 -41 -163 0 -9 69
-56 86 -58 7 -1 27 -13 43 -26 25 -19 30 -31 30 -65 1 -40 -4 -49 -69 -117
-64 -67 -86 -106 -60 -106 24 0 108 51 142 87 68 70 84 142 48 214 -21 40 -91
94 -137 105 -24 6 -31 37 -14 63 9 13 50 12 117 -5 17 -5 24 2 38 35 9 23 16
46 16 51 0 11 -40 11 -132 1z"/>
<path d="M4197 1693 c-30 -5 -47 -34 -47 -78 0 -22 3 -23 53 -19 28 3 70 2 91
-3 35 -8 37 -10 24 -24 -9 -8 -19 -26 -23 -39 -4 -14 -18 -49 -31 -78 -13 -29
-24 -59 -24 -67 0 -8 -9 -47 -19 -87 -11 -40 -22 -95 -26 -123 -5 -44 -3 -52
15 -63 11 -7 24 -10 29 -8 4 3 11 34 14 68 13 125 63 282 145 458 36 77 43 70
-71 69 -56 -1 -115 -4 -130 -6z"/>
<path d="M4550 1693 c-33 -5 -70 -77 -77 -149 l-6 -52 52 -26 c28 -15 51 -30
51 -35 0 -5 9 -11 19 -14 22 -5 35 -54 26 -96 -3 -15 -28 -53 -55 -84 -28 -30
-50 -62 -50 -71 0 -27 38 -18 88 20 180 137 160 296 -45 358 -16 5 -23 15 -23
32 0 30 31 44 98 44 57 0 65 6 80 48 l11 32 -72 -1 c-40 -1 -83 -4 -97 -6z"/>
<path d="M3925 1674 c-41 -21 -41 -21 -19 -45 17 -19 19 -38 19 -208 -1 -134
-5 -193 -14 -210 -18 -33 -2 -41 82 -41 61 0 67 2 67 21 0 13 -8 23 -20 26
-19 5 -20 12 -18 182 2 97 -1 202 -5 234 -8 53 -10 57 -35 57 -15 0 -40 -7
-57 -16z"/>
<path d="M6613 7833 c-7 -2 -13 -22 -13 -43 0 -44 25 -66 60 -55 16 5 20 15
20 50 0 50 -23 66 -67 48z"/>
<path d="M2240 7765 c-10 -12 -10 -21 -2 -41 24 -51 66 -39 78 24 6 31 6 32
-29 32 -19 0 -40 -7 -47 -15z"/>
<path d="M5841 7506 c-24 -26 -25 -35 -9 -71 9 -20 18 -25 37 -23 23 3 26 8
29 50 2 38 -1 49 -16 57 -15 8 -24 6 -41 -13z"/>
<path d="M3032 7488 c-22 -28 -14 -91 13 -102 20 -7 55 28 55 55 0 48 -42 78
-68 47z"/>
<path d="M7343 7192 c-23 -14 -35 -64 -22 -89 20 -36 49 -40 76 -9 30 35 30
69 -2 90 -27 18 -35 19 -52 8z"/>
<path d="M1511 7095 c-36 -41 -34 -37 -19 -70 8 -19 19 -25 43 -25 27 0 33 5
44 36 10 28 10 42 1 65 -16 38 -31 37 -69 -6z"/>
<path d="M6627 6922 c-30 -33 -15 -102 22 -102 42 0 63 68 32 99 -26 26 -33
26 -54 3z"/>
<path d="M2232 6878 c-32 -32 3 -113 45 -102 25 7 35 39 27 83 -5 25 -11 31
-33 31 -15 0 -32 -5 -39 -12z"/>
<path d="M7837 6292 c-8 -9 -21 -30 -27 -46 -9 -24 -8 -32 7 -48 32 -36 49
-39 77 -17 32 25 34 66 5 103 -24 30 -40 33 -62 8z"/>
<path d="M1000 6210 c-9 -6 -14 -24 -14 -48 2 -80 45 -107 83 -53 27 38 26 57
-4 86 -26 27 -41 30 -65 15z"/>
<path d="M7196 6198 c-20 -29 -20 -52 0 -83 21 -32 37 -31 64 2 16 20 20 36
16 57 -10 50 -53 62 -80 24z"/>
<path d="M1640 6140 c-26 -26 -25 -50 0 -78 29 -31 55 -28 70 8 10 24 10 36 0
60 -15 35 -41 39 -70 10z"/>
<path d="M7360 5300 c-21 -5 -25 -13 -28 -48 -4 -55 11 -82 47 -82 40 0 53 20
49 76 -3 52 -21 66 -68 54z"/>
<path d="M8095 5224 c-47 -51 -19 -123 48 -124 4 0 17 21 28 46 20 44 20 46 2
67 -37 45 -46 46 -78 11z"/>
<path d="M1487 5212 c-20 -22 -23 -92 -5 -110 7 -7 24 -12 38 -12 37 0 50 18
50 66 0 33 -5 47 -22 58 -29 21 -41 20 -61 -2z"/>
<path d="M730 5116 c-7 -13 -12 -35 -12 -49 0 -29 29 -77 47 -77 22 0 55 51
55 85 0 59 -64 88 -90 41z"/>
<path d="M7380 4451 c-5 -11 -10 -32 -10 -48 0 -71 29 -99 64 -63 26 25 30
105 6 120 -24 15 -48 12 -60 -9z"/>
<path d="M1467 4363 c-27 -31 -26 -70 3 -101 26 -28 34 -27 60 1 17 17 20 30
16 57 -9 54 -49 76 -79 43z"/>
<path d="M8051 4026 c-33 -35 -27 -104 11 -126 25 -13 29 -13 44 2 9 9 18 36
21 60 5 41 3 47 -24 66 l-30 21 -22 -23z"/>
<path d="M786 3908 c-46 -65 12 -170 65 -117 28 28 26 103 -3 123 -30 22 -44
20 -62 -6z"/>
<path d="M7501 2714 c-27 -34 -27 -68 1 -94 28 -26 54 -25 72 3 29 45 28 64
-1 91 -35 33 -46 33 -72 0z"/>
<path d="M1346 2638 c-42 -59 9 -140 63 -102 16 11 21 26 21 58 0 23 -5 47
-12 54 -19 19 -55 14 -72 -10z"/>
</g>
</svg>
