<?xml version="1.0" encoding="utf-8"?>
<!-- Generator: Adobe Illustrator 21.0.0, SVG Export Plug-In . SVG Version: 6.00 Build 0)  -->
<svg version="1.1" id="Слой_1" xmlns="http://www.w3.org/2000/svg" xmlns:xlink="http://www.w3.org/1999/xlink" x="0px" y="0px"
	 viewBox="0 0 249 201.7" style="enable-background:new 0 0 249 201.7;" xml:space="preserve">
<style type="text/css">
	.st0{fill:#1761AA;}
</style>
<g id="files-and-folders" transform="translate(0.199 -37.671)">
	<g id="Сгруппировать_3788" transform="translate(0 37.871)">
		<g id="Контур_4443">
			<path class="st0" d="M225.7,44.5v-6.3c0-10.2-8.3-18.4-18.4-18.4h-80.6L110.7,0.9c-0.6-0.7-1.5-1.1-2.4-1.1H43.2
				C33-0.2,24.8,8.1,24.8,18.2v26.3C11.1,44.6,0,55.7,0,69.4c0,0.1,0,0.3,0,0.4l14.3,107c0.1,13.6,11.2,24.6,24.9,24.6h172
				c13.6,0,24.7-11,24.9-24.6l14.4-107c0-0.1,0-0.3,0-0.4C250.4,55.8,239.4,44.7,225.7,44.5z M31,18.2C31,11.5,36.5,6,43.2,6h63.7
				L122.8,25c0.6,0.7,1.5,1.1,2.4,1.2h82.1c6.7,0,12.2,5.5,12.2,12.2v6.3H31L31,18.2z M230,176.2c0,0.1,0,0.3,0,0.4
				c0,10.3-8.4,18.6-18.6,18.6H39.2c-10.3,0-18.6-8.4-18.6-18.7c0-0.1,0-0.3,0-0.4L6.2,69.2C6.4,59,14.6,50.9,24.8,50.8h201
				c10.2,0.1,18.4,8.3,18.5,18.4L230,176.2z"/>
			<path class="st0" d="M211.2,201.7h-172c-13.7,0-24.9-11.2-25.1-24.8l-14.3-107c0-0.2,0-0.3,0-0.4c0-13.7,11.1-24.8,24.7-25V18.2
				C24.6,8,32.9-0.4,43.2-0.4h65.2c0,0,0,0,0,0c1,0,1.9,0.4,2.5,1.2l15.9,18.9h80.5c10.3,0,18.6,8.4,18.6,18.6v6.1
				c13.6,0.2,24.6,11.4,24.7,25c0,0.1,0,0.3,0,0.4l-14.4,107.1C236.1,190.5,224.8,201.7,211.2,201.7z M43.2,0C33.1,0,25,8.2,25,18.2
				v26.5l-0.2,0C11.2,44.8,0.2,55.9,0.2,69.4c0,0.1,0,0.3,0,0.4l14.3,107c0.1,13.5,11.2,24.5,24.7,24.5h172
				c13.5,0,24.5-11,24.7-24.4l14.4-107.1c0-0.1,0-0.2,0-0.4c0-13.5-11-24.5-24.5-24.7l-0.2,0v-6.5c0-10-8.2-18.2-18.2-18.2h-80.7
				l-0.1-0.1L110.6,1c-0.6-0.7-1.4-1-2.2-1c0,0,0,0,0,0H43.2z M39.2,195.5c-10.4,0-18.8-8.5-18.8-18.9c0-0.1,0-0.3,0-0.4L6,69.2
				C6.2,59,14.6,50.7,24.7,50.6h201c10.2,0.1,18.6,8.4,18.7,18.6l-14.3,107c0,0.1,0,0.3,0,0.4c0,10.4-8.5,18.8-18.8,18.8H39.2z
				 M24.8,51c-10,0.1-18.2,8.3-18.3,18.2l14.4,107c0,0.2,0,0.3,0,0.4c0,10.1,8.3,18.4,18.4,18.4h172.1c10.2,0,18.4-8.3,18.4-18.4
				c0-0.1,0-0.3,0-0.4l0,0l14.3-107c-0.1-9.9-8.3-18.1-18.3-18.2H24.8z M219.7,44.8H30.8v-0.2l0.1-26.4c0-6.8,5.6-12.4,12.4-12.4
				H107l0.1,0.1L123,24.8c0.5,0.7,1.4,1.1,2.2,1.1h82c6.8,0,12.4,5.6,12.4,12.4V44.8z M31.2,44.4h188.1v-6.1c0-6.6-5.4-12-12-12
				h-82.1c-1,0-1.9-0.5-2.5-1.2L106.8,6.2H43.2c-6.6,0-12,5.4-12,12v0L31.2,44.4z"/>
		</g>
	</g>
</g>
</svg>
