<?xml version="1.0" encoding="utf-8"?>
<!-- Generator: Adobe Illustrator 21.0.0, SVG Export Plug-In . SVG Version: 6.00 Build 0)  -->
<svg version="1.1" id="Слой_1" xmlns="http://www.w3.org/2000/svg" xmlns:xlink="http://www.w3.org/1999/xlink" x="0px" y="0px"
	 viewBox="0 0 299.3 292.4" style="enable-background:new 0 0 299.3 292.4;" xml:space="preserve">
<image style="overflow:visible;enable-background:new    ;" width="1350" height="1319" id="Прямоугольник_3521" xlink:href="A2FE93DF.png"  transform="matrix(0.2217 0 0 0.2217 0 9.110167e-02)">
</image>
</svg>
